io/sigpipe/sing/dataset/SpatialProperties.class
io/sigpipe/sing/stat/SerializableReservoir.class
io/sigpipe/sing/adapters/ConvertMetaBundle.class
io/sigpipe/sing/graph/PathInfoCollector.class
io/sigpipe/sing/serialization/SimpleMap.class
io/sigpipe/sing/dataset/feature/StringFeatureData.class
io/sigpipe/sing/query/PartitionQuery.class
io/sigpipe/sing/dataset/feature/NullFeatureData.class
io/sigpipe/sing/graph/GraphException.class
io/sigpipe/sing/serialization/SerializationOutputStream$1.class
io/sigpipe/sing/stat/RunningStatistics2D.class
io/sigpipe/sing/dataset/feature/LongFeatureData.class
io/sigpipe/sing/query/QueryException.class
io/sigpipe/sing/dataset/package-info.class
io/sigpipe/sing/dataset/analysis/Quantizer.class
io/sigpipe/sing/dataset/feature/DoubleFeatureData.class
io/sigpipe/sing/dataset/feature/package-info.class
io/sigpipe/sing/graph/GraphMetrics.class
io/sigpipe/sing/stat/SimpleRunningStatistics.class
io/sigpipe/sing/util/PerformanceTimer$PerformanceSample.class
io/sigpipe/sing/dataset/Temperature.class
io/sigpipe/sing/dataset/BlockInfo.class
io/sigpipe/sing/adapters/ReadMetadata.class
io/sigpipe/sing/dataset/feature/NumericFeatureData.class
io/sigpipe/sing/adapters/ReadMetaBlob.class
io/sigpipe/sing/graph/Path.class
riki/GenerateNamDataSampledAggregated.class
io/sigpipe/sing/util/TestConfiguration.class
io/sigpipe/sing/graph/TickHash.class
io/sigpipe/sing/serialization/SerializationException.class
io/sigpipe/sing/query/Expression.class
io/sigpipe/sing/dataset/feature/Feature.class
io/sigpipe/sing/dataset/feature/FeatureSet.class
io/sigpipe/sing/serialization/ByteSerializable.class
io/sigpipe/sing/adapters/ReadVertexBundle.class
io/sigpipe/sing/query/Query$1.class
io/sigpipe/sing/adapters/MergeSketch.class
io/sigpipe/sing/stat/Reservoir$Entry.class
io/sigpipe/sing/dataset/feature/FeatureType$1.class
io/sigpipe/sing/dataset/Coordinates.class
io/sigpipe/sing/dataset/analysis/TickEvaluator.class
io/sigpipe/sing/query/RelationalQuery.class
io/sigpipe/sing/serialization/SerializationInputStream.class
io/sigpipe/sing/stat/RunningStatistics$WelchResult.class
io/sigpipe/sing/query/Operator.class
io/sigpipe/sing/dataset/Block.class
io/sigpipe/sing/dataset/Device.class
io/sigpipe/sing/dataset/feature/ByteArray.class
io/sigpipe/sing/dataset/feature/FeatureType.class
io/sigpipe/sing/serialization/ByteSerializable$Deserialize.class
io/sigpipe/sing/stat/Reservoir.class
io/sigpipe/sing/graph/GeoTrie.class
io/sigpipe/sing/adapters/BigSketch.class
io/sigpipe/sing/dataset/TemporalProperties.class
io/sigpipe/sing/dataset/feature/FloatFeatureData.class
io/sigpipe/sing/stat/FeatureSurvey.class
io/sigpipe/sing/adapters/DiseaseTest.class
io/sigpipe/sing/dataset/analysis/AutoQuantizer.class
io/sigpipe/sing/graph/Sketch.class
io/sigpipe/sing/util/Geohash.class
io/sigpipe/sing/dataset/Metadata.class
io/sigpipe/sing/dataset/feature/Feature$1.class
io/sigpipe/sing/dataset/RuntimeMetadata.class
io/sigpipe/sing/util/GeoBits.class
io/sigpipe/sing/graph/Sketch$1.class
io/sigpipe/sing/stat/SquaredError.class
io/sigpipe/sing/dataset/SpatialRange.class
io/sigpipe/sing/dataset/Point.class
io/sigpipe/sing/adapters/GeoHashIndexedRecord.class
io/sigpipe/sing/serialization/Serializer.class
io/sigpipe/sing/dataset/Pair.class
io/sigpipe/sing/graph/CountContainer.class
io/sigpipe/sing/dataset/feature/FeatureData.class
io/sigpipe/sing/stat/OnlineKDE.class
io/sigpipe/sing/graph/FeatureHierarchy.class
io/sigpipe/sing/dataset/feature/IllegalFeatureComparisonException.class
io/sigpipe/sing/dataset/SimplePair.class
io/sigpipe/sing/util/MemoryUsage.class
io/sigpipe/sing/dataset/feature/FeatureArraySet.class
io/sigpipe/sing/stat/RunningStatistics2D$PearsonResult.class
io/sigpipe/sing/query/Expression$1.class
io/sigpipe/sing/serialization/package-info.class
io/sigpipe/sing/stat/package-info.class
io/sigpipe/sing/graph/Sketch$HierarchyLevel.class
io/sigpipe/sing/serialization/Serializer$1.class
io/sigpipe/sing/adapters/SketchProcessor.class
io/sigpipe/sing/dataset/FileBlock.class
io/sigpipe/sing/util/FileNames.class
io/sigpipe/sing/dataset/BlockMetadata.class
io/sigpipe/sing/query/package-info.class
io/sigpipe/sing/dataset/BlockArray.class
io/sigpipe/sing/graph/package-info.class
io/sigpipe/sing/stat/SummaryStatistics.class
io/sigpipe/sing/dataset/feature/IntegerFeatureData.class
io/sigpipe/sing/stat/RunningStatistics.class
io/sigpipe/sing/stat/RunningStatisticsND.class
io/sigpipe/sing/adapters/QueryTest.class
io/sigpipe/sing/query/MetaQuery.class
io/sigpipe/sing/serialization/SerializationOutputStream.class
io/sigpipe/sing/query/Query.class
io/sigpipe/sing/dataset/MetaArray.class
riki/GenerateNamData.class
io/sigpipe/sing/graph/Vertex.class
io/sigpipe/sing/stat/OnlineKDEException.class
io/sigpipe/sing/graph/FeatureTypeMismatchException.class
io/sigpipe/sing/dataset/feature/BinaryFeatureData.class
io/sigpipe/sing/dataset/analysis/Quantizer$QuantizerBuilder.class
io/sigpipe/sing/dataset/feature/FeatureArray.class
io/sigpipe/sing/graph/DataContainer.class
io/sigpipe/sing/dataset/DeviceSet.class
io/sigpipe/sing/util/PerformanceTimer.class
