/s/chopin/b/grad/sapmitra/git/sing/src/main/java/io/sigpipe/sing/dataset/MetaArray.java
/s/chopin/b/grad/sapmitra/git/sing/src/main/java/io/sigpipe/sing/dataset/feature/NumericFeatureData.java
/s/chopin/b/grad/sapmitra/git/sing/src/main/java/io/sigpipe/sing/query/Query.java
/s/chopin/b/grad/sapmitra/git/sing/src/main/java/io/sigpipe/sing/graph/Vertex.java
/s/chopin/b/grad/sapmitra/git/sing/src/main/java/io/sigpipe/sing/dataset/SpatialProperties.java
/s/chopin/b/grad/sapmitra/git/sing/src/main/java/io/sigpipe/sing/adapters/SketchProcessor.java
/s/chopin/b/grad/sapmitra/git/sing/src/main/java/io/sigpipe/sing/dataset/feature/FloatFeatureData.java
/s/chopin/b/grad/sapmitra/git/sing/src/main/java/io/sigpipe/sing/dataset/analysis/AutoQuantizer.java
/s/chopin/b/grad/sapmitra/git/sing/src/main/java/io/sigpipe/sing/util/TestConfiguration.java
/s/chopin/b/grad/sapmitra/git/sing/src/main/java/io/sigpipe/sing/query/package-info.java
/s/chopin/b/grad/sapmitra/git/sing/src/main/java/io/sigpipe/sing/graph/TickHash.java
/s/chopin/b/grad/sapmitra/git/sing/src/main/java/io/sigpipe/sing/stat/FeatureSurvey.java
/s/chopin/b/grad/sapmitra/git/sing/src/main/java/io/sigpipe/sing/serialization/SerializationException.java
/s/chopin/b/grad/sapmitra/git/sing/src/main/java/io/sigpipe/sing/dataset/FileBlock.java
/s/chopin/b/grad/sapmitra/git/sing/src/main/java/io/sigpipe/sing/adapters/MergeSketch.java
/s/chopin/b/grad/sapmitra/git/sing/src/main/java/io/sigpipe/sing/util/GeoBits.java
/s/chopin/b/grad/sapmitra/git/sing/src/main/java/io/sigpipe/sing/dataset/BlockMetadata.java
/s/chopin/b/grad/sapmitra/git/sing/src/main/java/io/sigpipe/sing/dataset/feature/StringFeatureData.java
/s/chopin/b/grad/sapmitra/git/sing/src/main/java/io/sigpipe/sing/dataset/Point.java
/s/chopin/b/grad/sapmitra/git/sing/src/main/java/io/sigpipe/sing/graph/GraphException.java
/s/chopin/b/grad/sapmitra/git/sing/src/main/java/io/sigpipe/sing/dataset/Coordinates.java
/s/chopin/b/grad/sapmitra/git/sing/src/main/java/io/sigpipe/sing/dataset/SpatialRange.java
/s/chopin/b/grad/sapmitra/git/sing/src/main/java/io/sigpipe/sing/adapters/DiseaseTest.java
/s/chopin/b/grad/sapmitra/git/sing/src/main/java/io/sigpipe/sing/dataset/package-info.java
/s/chopin/b/grad/sapmitra/git/sing/src/main/java/io/sigpipe/sing/graph/Path.java
/s/chopin/b/grad/sapmitra/git/sing/src/main/java/io/sigpipe/sing/graph/FeatureTypeMismatchException.java
/s/chopin/b/grad/sapmitra/git/sing/src/main/java/io/sigpipe/sing/stat/OnlineKDE.java
/s/chopin/b/grad/sapmitra/git/sing/src/main/java/io/sigpipe/sing/adapters/GeoHashIndexedRecord.java
/s/chopin/b/grad/sapmitra/git/sing/src/main/java/io/sigpipe/sing/util/PerformanceTimer.java
/s/chopin/b/grad/sapmitra/git/sing/src/main/java/io/sigpipe/sing/query/Expression.java
/s/chopin/b/grad/sapmitra/git/sing/src/main/java/io/sigpipe/sing/dataset/analysis/Quantizer.java
/s/chopin/b/grad/sapmitra/git/sing/src/main/java/io/sigpipe/sing/graph/GeoTrie.java
/s/chopin/b/grad/sapmitra/git/sing/src/main/java/io/sigpipe/sing/query/RelationalQuery.java
/s/chopin/b/grad/sapmitra/git/sing/src/main/java/io/sigpipe/sing/dataset/Block.java
/s/chopin/b/grad/sapmitra/git/sing/src/main/java/io/sigpipe/sing/adapters/ConvertMetaBundle.java
/s/chopin/b/grad/sapmitra/git/sing/src/main/java/io/sigpipe/sing/dataset/feature/FeatureSet.java
/s/chopin/b/grad/sapmitra/git/sing/src/main/java/io/sigpipe/sing/stat/SerializableReservoir.java
/s/chopin/b/grad/sapmitra/git/sing/src/main/java/io/sigpipe/sing/serialization/Serializer.java
/s/chopin/b/grad/sapmitra/git/sing/src/main/java/io/sigpipe/sing/dataset/feature/ByteArray.java
/s/chopin/b/grad/sapmitra/git/sing/src/main/java/io/sigpipe/sing/dataset/TemporalProperties.java
/s/chopin/b/grad/sapmitra/git/sing/src/main/java/io/sigpipe/sing/dataset/SimplePair.java
/s/chopin/b/grad/sapmitra/git/sing/src/main/java/io/sigpipe/sing/query/QueryException.java
/s/chopin/b/grad/sapmitra/git/sing/src/main/java/io/sigpipe/sing/stat/SimpleRunningStatistics.java
/s/chopin/b/grad/sapmitra/git/sing/src/main/java/io/sigpipe/sing/dataset/DeviceSet.java
/s/chopin/b/grad/sapmitra/git/sing/src/main/java/io/sigpipe/sing/dataset/Pair.java
/s/chopin/b/grad/sapmitra/git/sing/src/main/java/io/sigpipe/sing/dataset/feature/BinaryFeatureData.java
/s/chopin/b/grad/sapmitra/git/sing/src/main/java/io/sigpipe/sing/util/Geohash.java
/s/chopin/b/grad/sapmitra/git/sing/src/main/java/io/sigpipe/sing/stat/package-info.java
/s/chopin/b/grad/sapmitra/git/sing/src/main/java/io/sigpipe/sing/dataset/feature/DoubleFeatureData.java
/s/chopin/b/grad/sapmitra/git/sing/src/main/java/io/sigpipe/sing/adapters/ReadMetadata.java
/s/chopin/b/grad/sapmitra/git/sing/src/main/java/io/sigpipe/sing/dataset/RuntimeMetadata.java
/s/chopin/b/grad/sapmitra/git/sing/src/main/java/io/sigpipe/sing/dataset/Temperature.java
/s/chopin/b/grad/sapmitra/git/sing/src/main/java/io/sigpipe/sing/stat/SquaredError.java
/s/chopin/b/grad/sapmitra/git/sing/src/main/java/io/sigpipe/sing/graph/PathInfoCollector.java
/s/chopin/b/grad/sapmitra/git/sing/src/main/java/io/sigpipe/sing/dataset/analysis/TickEvaluator.java
/s/chopin/b/grad/sapmitra/git/sing/src/main/java/io/sigpipe/sing/graph/Sketch.java
/s/chopin/b/grad/sapmitra/git/sing/src/main/java/io/sigpipe/sing/serialization/ByteSerializable.java
/s/chopin/b/grad/sapmitra/git/sing/src/main/java/io/sigpipe/sing/query/Operator.java
/s/chopin/b/grad/sapmitra/git/sing/src/main/java/io/sigpipe/sing/graph/GraphMetrics.java
/s/chopin/b/grad/sapmitra/git/sing/src/main/java/io/sigpipe/sing/graph/package-info.java
/s/chopin/b/grad/sapmitra/git/sing/src/main/java/riki/GenerateNamData.java
/s/chopin/b/grad/sapmitra/git/sing/src/main/java/io/sigpipe/sing/dataset/BlockInfo.java
/s/chopin/b/grad/sapmitra/git/sing/src/main/java/io/sigpipe/sing/dataset/BlockArray.java
/s/chopin/b/grad/sapmitra/git/sing/src/main/java/io/sigpipe/sing/serialization/package-info.java
/s/chopin/b/grad/sapmitra/git/sing/src/main/java/io/sigpipe/sing/stat/RunningStatisticsND.java
/s/chopin/b/grad/sapmitra/git/sing/src/main/java/io/sigpipe/sing/util/FileNames.java
/s/chopin/b/grad/sapmitra/git/sing/src/main/java/io/sigpipe/sing/dataset/feature/NullFeatureData.java
/s/chopin/b/grad/sapmitra/git/sing/src/main/java/io/sigpipe/sing/adapters/QueryTest.java
/s/chopin/b/grad/sapmitra/git/sing/src/main/java/io/sigpipe/sing/stat/SummaryStatistics.java
/s/chopin/b/grad/sapmitra/git/sing/src/main/java/io/sigpipe/sing/dataset/feature/IntegerFeatureData.java
/s/chopin/b/grad/sapmitra/git/sing/src/main/java/io/sigpipe/sing/util/MemoryUsage.java
/s/chopin/b/grad/sapmitra/git/sing/src/main/java/io/sigpipe/sing/adapters/ReadVertexBundle.java
/s/chopin/b/grad/sapmitra/git/sing/src/main/java/io/sigpipe/sing/dataset/Metadata.java
/s/chopin/b/grad/sapmitra/git/sing/src/main/java/io/sigpipe/sing/dataset/Device.java
/s/chopin/b/grad/sapmitra/git/sing/src/main/java/io/sigpipe/sing/stat/OnlineKDEException.java
/s/chopin/b/grad/sapmitra/git/sing/src/main/java/io/sigpipe/sing/serialization/SerializationOutputStream.java
/s/chopin/b/grad/sapmitra/git/sing/src/main/java/io/sigpipe/sing/dataset/feature/LongFeatureData.java
/s/chopin/b/grad/sapmitra/git/sing/src/main/java/io/sigpipe/sing/graph/FeatureHierarchy.java
/s/chopin/b/grad/sapmitra/git/sing/src/main/java/io/sigpipe/sing/dataset/feature/FeatureArraySet.java
/s/chopin/b/grad/sapmitra/git/sing/src/main/java/io/sigpipe/sing/adapters/ReadMetaBlob.java
/s/chopin/b/grad/sapmitra/git/sing/src/main/java/riki/GenerateNamDataSampledAggregated.java
/s/chopin/b/grad/sapmitra/git/sing/src/main/java/io/sigpipe/sing/graph/DataContainer.java
/s/chopin/b/grad/sapmitra/git/sing/src/main/java/io/sigpipe/sing/serialization/SimpleMap.java
/s/chopin/b/grad/sapmitra/git/sing/src/main/java/io/sigpipe/sing/query/PartitionQuery.java
/s/chopin/b/grad/sapmitra/git/sing/src/main/java/io/sigpipe/sing/graph/CountContainer.java
/s/chopin/b/grad/sapmitra/git/sing/src/main/java/io/sigpipe/sing/query/MetaQuery.java
/s/chopin/b/grad/sapmitra/git/sing/src/main/java/io/sigpipe/sing/adapters/BigSketch.java
/s/chopin/b/grad/sapmitra/git/sing/src/main/java/io/sigpipe/sing/stat/RunningStatistics.java
/s/chopin/b/grad/sapmitra/git/sing/src/main/java/io/sigpipe/sing/dataset/feature/Feature.java
/s/chopin/b/grad/sapmitra/git/sing/src/main/java/io/sigpipe/sing/stat/Reservoir.java
/s/chopin/b/grad/sapmitra/git/sing/src/main/java/io/sigpipe/sing/dataset/feature/package-info.java
/s/chopin/b/grad/sapmitra/git/sing/src/main/java/io/sigpipe/sing/dataset/feature/IllegalFeatureComparisonException.java
/s/chopin/b/grad/sapmitra/git/sing/src/main/java/io/sigpipe/sing/dataset/feature/FeatureType.java
/s/chopin/b/grad/sapmitra/git/sing/src/main/java/io/sigpipe/sing/dataset/feature/FeatureArray.java
/s/chopin/b/grad/sapmitra/git/sing/src/main/java/io/sigpipe/sing/dataset/feature/FeatureData.java
/s/chopin/b/grad/sapmitra/git/sing/src/main/java/io/sigpipe/sing/stat/RunningStatistics2D.java
/s/chopin/b/grad/sapmitra/git/sing/src/main/java/io/sigpipe/sing/serialization/SerializationInputStream.java
